<?xml version="1.0" encoding="iso-8859-1"?>
<!-- Generator: Adobe Illustrator 17.1.0, SVG Export Plug-In . SVG Version: 6.00 Build 0)  -->
<!DOCTYPE svg PUBLIC "-//W3C//DTD SVG 1.1//EN" "http://www.w3.org/Graphics/SVG/1.1/DTD/svg11.dtd">
<svg version="1.1" id="&#x421;&#x43B;&#x43E;&#x439;_1"
	 xmlns="http://www.w3.org/2000/svg" xmlns:xlink="http://www.w3.org/1999/xlink" x="0px" y="0px" viewBox="0 0 50 50"
	 style="enable-background:new 0 0 50 50;" xml:space="preserve">
<rect x="4.477" y="0.121" width="1.33" height="49.757"/>
<polygon points="44.95,0.123 43.625,1.449 4.474,1.449 4.474,0.123 "/>
<polygon points="43.58,32.019 2.528,32.019 2.528,30.686 42.247,30.686 "/>
<polygon points="44.95,0.123 28.51,16.563 27.572,15.624 43.073,0.123 "/>
<polygon points="45.526,31.701 43.649,31.701 27.572,15.624 28.51,14.686 "/>
<g>
</g>
<g>
</g>
<g>
</g>
<g>
</g>
<g>
</g>
</svg>
