<?xml version="1.0" encoding="iso-8859-1"?>
<!-- Generator: Adobe Illustrator 17.1.0, SVG Export Plug-In . SVG Version: 6.00 Build 0)  -->
<!DOCTYPE svg PUBLIC "-//W3C//DTD SVG 1.1//EN" "http://www.w3.org/Graphics/SVG/1.1/DTD/svg11.dtd">
<svg version="1.1" id="&#x421;&#x43B;&#x43E;&#x439;_1"
	 xmlns="http://www.w3.org/2000/svg" xmlns:xlink="http://www.w3.org/1999/xlink" x="0px" y="0px" viewBox="0 0 2216.523 371.147"
	 style="enable-background:new 0 0 2216.523 371.147;" xml:space="preserve">
<g>
	<path style="fill:#FFFFFF;" d="M23.332,17.388v153.7h17.34v-153.7H23.332z"/>
	<path style="fill:#FFFFFF;" d="M186.462,155.058V17.388h-17.34v153.7h103.85v-16.03H186.462z"/>
	<path style="fill:#FFFFFF;" d="M468.382,108.288c12.59-2.34,22.69-7.32,30.3-14.93c7.61-7.61,11.42-17.57,11.42-29.86
		c0-12.59-3.95-22.84-11.86-30.74c-10.25-10.24-24.81-15.37-43.69-15.37h-66.09v153.7h17.34v-59.73h43.92l44.57,59.73h21.3
		L468.382,108.288z M405.802,95.768v-62.35h47.43c12.3,0,21.92,2.67,28.87,8.01c6.95,5.35,10.43,12.78,10.43,22.29
		c0,9.95-3.66,17.78-10.98,23.49c-7.32,5.71-16.83,8.56-28.54,8.56H405.802z"/>
	<path style="fill:#FFFFFF;" d="M738.882,17.388v89.36c0,16.55-4.1,29.13-12.29,37.77c-6.69,7.05-15.47,11.22-26.35,12.51v16.11
		c15.84-1.42,28.72-7.15,38.64-17.2c11.57-11.71,17.35-28.55,17.35-50.5v-88.05H738.882z M657.972,143.968
		c-8.27-9-12.4-21.77-12.4-38.31v-88.27h-17.35v89.36c0,21.23,5.78,37.66,17.35,49.3c9.95,10.01,22.83,15.71,38.64,17.11v-16.21
		C673.362,155.518,664.612,151.198,657.972,143.968z"/>
	<path style="fill:#FFFFFF;" d="M973.932,101.808c-7.98-6.8-20.68-12.11-38.1-15.92c-16.25-3.51-27.26-7.46-33.04-11.85
		c-5.79-4.39-8.68-10.39-8.68-18.01c0-7.31,3-13.35,9.01-18.11c6-4.76,13.9-7.14,23.71-7.14c15.95,0,30.74,5.57,44.35,16.69
		l10.1-13.39c-15.66-12.59-33.67-18.89-54.01-18.89c-14.64,0-26.72,3.96-36.23,11.86c-9.52,7.91-14.27,17.93-14.27,30.08
		c0,12.44,4.02,22.03,12.07,28.76c8.05,6.74,21.23,12.08,39.53,16.03c15.51,3.22,26.05,7.03,31.61,11.42
		c5.57,4.39,8.35,10.32,8.35,17.79c0,7.9-3.15,14.3-9.44,19.21c-6.3,4.9-14.57,7.35-24.81,7.35c-10.4,0-19.73-1.75-28-5.27
		c-8.27-3.51-16.5-9-24.7-16.46l-10.76,12.73c18.3,16.4,39.23,24.59,62.8,24.59c15.37,0,27.95-3.99,37.76-11.96
		c9.81-7.98,14.71-18.48,14.71-31.51C985.892,117.948,981.902,108.618,973.932,101.808z"/>
	<path style="fill:#FFFFFF;" d="M1197.882,101.808c-7.98-6.8-20.67-12.11-38.09-15.92c-16.25-3.51-27.27-7.46-33.05-11.85
		c-5.78-4.39-8.67-10.39-8.67-18.01c0-7.31,3-13.35,9-18.11s13.91-7.14,23.72-7.14c15.95,0,30.74,5.57,44.35,16.69l10.1-13.39
		c-15.67-12.59-33.67-18.89-54.01-18.89c-14.64,0-26.72,3.96-36.23,11.86c-9.52,7.91-14.27,17.93-14.27,30.08
		c0,12.44,4.02,22.03,12.07,28.76c8.05,6.74,21.22,12.08,39.52,16.03c15.52,3.22,26.06,7.03,31.62,11.42
		c5.56,4.39,8.34,10.32,8.34,17.79c0,7.9-3.15,14.3-9.44,19.21c-6.29,4.9-14.56,7.35-24.81,7.35c-10.39,0-19.72-1.75-27.99-5.27
		c-8.27-3.51-16.51-9-24.7-16.46l-10.76,12.73c18.29,16.4,39.22,24.59,62.79,24.59c15.37,0,27.96-3.99,37.77-11.96
		c9.8-7.98,14.71-18.48,14.71-31.51C1209.852,117.948,1205.862,108.618,1197.882,101.808z"/>
	<path style="fill:#FFFFFF;" d="M1317.662,17.388v16.03h51.59v137.67h17.57V33.418h51.6v-16.03H1317.662z"/>
	<path style="fill:#FFFFFF;" d="M1634.271,108.288c12.58-2.34,22.68-7.32,30.3-14.93c7.61-7.61,11.41-17.57,11.41-29.86
		c0-12.59-3.95-22.84-11.85-30.74c-10.25-10.24-24.81-15.37-43.7-15.37h-66.08v153.7h17.34v-59.73h43.91l44.58,59.73h21.29
		L1634.271,108.288z M1571.692,95.768v-62.35h47.43c12.29,0,21.92,2.67,28.87,8.01c6.95,5.35,10.43,12.78,10.43,22.29
		c0,9.95-3.66,17.78-10.98,23.49s-16.83,8.56-28.54,8.56H1571.692z"/>
	<path style="fill:#FFFFFF;" d="M1824.742,49.118c9.6-10.35,21.38-16.32,35.35-17.91v-16.09c-19.16,1.67-35.23,9.35-48.2,23.02
		c-13.52,14.26-20.86,31.13-22,50.6c-0.12,1.81-0.17,3.64-0.17,5.5c0,3.6,0.2,7.11,0.6,10.53c2,17.48,9.12,32.7,21.35,45.68
		c12.94,13.71,29.08,21.36,48.42,22.96v-16.21c-13.79-1.66-25.5-7.65-35.13-17.95c-9.14-9.78-14.65-21.27-16.51-34.48
		c-0.49-3.39-0.73-6.91-0.73-10.53c0-1.87,0.06-3.7,0.19-5.5C1808.972,73.268,1814.582,60.058,1824.742,49.118z M1946.332,88.738
		c-1.13-19.61-8.4-36.5-21.8-50.71c-12.94-13.71-29.07-21.36-48.41-22.95v16.19c13.79,1.67,25.5,7.65,35.13,17.96
		c10.28,11,15.96,24.17,17.04,39.51c0.13,1.8,0.19,3.64,0.19,5.5c0,3.63-0.23,7.14-0.7,10.53c-1.84,13.32-7.27,24.85-16.31,34.59
		c-9.61,10.35-21.39,16.31-35.35,17.89v16.11c19.16-1.67,35.23-9.35,48.19-23.02c12.34-13.02,19.54-28.21,21.57-45.57
		c0.41-3.42,0.61-6.93,0.61-10.53C1946.492,92.378,1946.442,90.548,1946.332,88.738z"/>
	<path style="fill:#FFFFFF;" d="M2175.932,17.388l-52.25,76.85l-51.82-76.85h-21.08l63.89,92.88v60.82h17.57v-61.04l63.89-92.66
		H2175.932z"/>
</g>
<g>
	<path style="fill:#FFFFFF;" d="M74.377,342.501H39.144l-6.898,18.253h-7.853l28.547-74.288h7.642l28.548,74.288h-7.854
		L74.377,342.501z M71.724,335.496l-14.963-39.797l-14.964,39.797H71.724z"/>
	<path style="fill:#FFFFFF;" d="M165.113,331.039h-20.8v29.715h-7.429v-74.288H166.6c12.311,0,22.286,9.976,22.286,22.287
		c0,10.082-6.792,18.678-16.024,21.331l18.146,30.67h-8.489L165.113,331.039z M144.314,324.035H166.6
		c8.172,0,14.857-6.898,14.857-15.282c0-8.49-6.686-15.282-14.857-15.282h-22.286V324.035z"/>
	<path style="fill:#FFFFFF;" d="M235.579,323.61c0-21.225,16.131-38.417,38.947-38.417c13.797,0,26.001,7.217,32.156,18.253
		l-6.58,3.821c-4.563-8.915-14.433-14.857-25.576-14.857c-18.783,0-31.519,13.902-31.519,31.201s12.735,31.201,31.519,31.201
		c11.144,0,21.013-5.943,25.576-14.857l6.58,3.714c-6.049,11.037-18.254,18.359-32.156,18.359
		C251.71,362.027,235.579,344.835,235.579,323.61z"/>
	<path style="fill:#FFFFFF;" d="M412.277,286.466v74.288h-7.429v-34.703h-40.327v34.703h-7.429v-74.288h7.429v32.581h40.327v-32.581
		H412.277z"/>
	<path style="fill:#FFFFFF;" d="M474.892,286.466v74.288h-7.429v-74.288H474.892z"/>
	<path style="fill:#FFFFFF;" d="M576.771,293.471h-22.816v67.283h-7.429v-67.283h-22.817v-7.004h53.063V293.471z"/>
	<path style="fill:#FFFFFF;" d="M669.1,353.75v7.004h-43.511v-74.288h42.98v7.004h-35.552v26.319h32.898v7.004h-32.898v26.956H669.1
		z"/>
	<path style="fill:#FFFFFF;" d="M715.266,323.61c0-21.225,16.131-38.417,38.947-38.417c13.797,0,26.001,7.217,32.156,18.253
		l-6.58,3.821c-4.563-8.915-14.433-14.857-25.576-14.857c-18.783,0-31.519,13.902-31.519,31.201s12.735,31.201,31.519,31.201
		c11.144,0,21.013-5.943,25.576-14.857l6.58,3.714c-6.049,11.037-18.254,18.359-32.156,18.359
		C731.397,362.027,715.266,344.835,715.266,323.61z"/>
	<path style="fill:#FFFFFF;" d="M882.412,293.471h-22.816v67.283h-7.429v-67.283H829.35v-7.004h53.063V293.471z"/>
	<path style="fill:#FFFFFF;" d="M930.169,335.496v-49.03h7.429v49.03c0,11.78,7.322,19.315,20.164,19.315
		c12.841,0,20.163-7.535,20.163-19.315v-49.03h7.429v49.03c0,16.237-11.354,26.531-27.592,26.531S930.169,351.733,930.169,335.496z"
		/>
	<path style="fill:#FFFFFF;" d="M1067.706,331.039h-20.8v29.715h-7.429v-74.288h29.715c12.311,0,22.286,9.976,22.286,22.287
		c0,10.082-6.792,18.678-16.024,21.331l18.146,30.67h-8.489L1067.706,331.039z M1046.906,324.035h22.286
		c8.172,0,14.857-6.898,14.857-15.282c0-8.49-6.686-15.282-14.857-15.282h-22.286V324.035z"/>
	<path style="fill:#FFFFFF;" d="M1185.928,353.75v7.004h-43.511v-74.288h42.98v7.004h-35.552v26.319h32.898v7.004h-32.898v26.956
		H1185.928z"/>
	<path style="fill:#FFFFFF;" d="M1353.606,362.027l-7.854-8.384c-5.094,5.094-12.204,8.384-21.861,8.384
		c-14.434,0-24.409-7.959-24.409-21.013c0-9.021,4.67-17.086,14.327-21.543c-3.184-3.608-5.519-7.853-5.519-14.008
		c0-12.841,10.507-20.27,21.225-20.27c9.34,0,18.042,5.519,21.438,14.751l-6.261,3.608c-2.123-7.004-8.172-11.143-15.07-11.143
		c-7.429,0-13.902,4.881-13.902,12.629c0,5.412,3.078,9.232,6.898,13.265l22.393,23.878c2.016-3.927,3.396-8.596,4.032-14.115
		l6.58,3.82c-0.85,5.625-2.547,11.144-5.413,15.813l9.977,10.612L1353.606,362.027z M1340.659,348.231l-21.861-23.241
		c-8.915,3.29-11.887,9.976-11.887,15.813c0,8.703,6.474,14.009,16.768,14.009C1330.79,354.811,1336.414,352.583,1340.659,348.231z"
		/>
	<path style="fill:#FFFFFF;" d="M1527.334,340.06c0,11.461-9.233,20.694-20.694,20.694h-32.368v-74.288h29.927
		c11.037,0,19.952,9.021,19.952,19.952c0,6.898-3.396,12.523-8.703,15.813C1522.452,325.202,1527.334,331.782,1527.334,340.06z
		 M1481.7,293.471v25.895h22.498c6.898,0,12.523-5.731,12.523-12.947c0-7.11-5.625-12.947-12.523-12.947H1481.7z M1519.905,340.06
		c0-7.535-5.943-13.69-13.266-13.69H1481.7v27.38h24.939C1513.962,353.75,1519.905,347.701,1519.905,340.06z"/>
	<path style="fill:#FFFFFF;" d="M1576.684,335.496v-49.03h7.429v49.03c0,11.78,7.322,19.315,20.164,19.315
		c12.841,0,20.163-7.535,20.163-19.315v-49.03h7.429v49.03c0,16.237-11.354,26.531-27.592,26.531S1576.684,351.733,1576.684,335.496
		z"/>
	<path style="fill:#FFFFFF;" d="M1693.42,286.466v74.288h-7.429v-74.288H1693.42z"/>
	<path style="fill:#FFFFFF;" d="M1789.993,353.75v7.004h-41.389v-74.288h7.429v67.283H1789.993z"/>
	<path style="fill:#FFFFFF;" d="M1902.485,323.61c0,20.482-14.539,37.144-35.021,37.144h-28.653v-74.288h28.653
		C1887.946,286.466,1902.485,303.128,1902.485,323.61z M1895.269,323.61c0-16.662-11.249-30.14-27.805-30.14h-21.225v60.279h21.225
		C1884.02,353.75,1895.269,340.272,1895.269,323.61z"/>
	<path style="fill:#FFFFFF;" d="M1960.854,286.466v74.288h-7.429v-74.288H1960.854z"/>
	<path style="fill:#FFFFFF;" d="M2071.223,286.466v74.288h-6.367l-41.389-60.491v60.491h-7.429v-74.288h6.367l41.389,60.491v-60.491
		H2071.223z"/>
	<path style="fill:#FFFFFF;" d="M2197.405,329.235c0,17.723-13.478,32.792-36.295,32.792c-22.816,0-38.947-17.192-38.947-38.417
		c0-21.225,16.131-38.417,38.947-38.417c13.902,0,26.001,7.323,32.156,18.253l-6.58,3.821c-4.563-8.915-14.433-14.857-25.576-14.857
		c-18.783,0-31.519,13.902-31.519,31.201s12.735,31.201,31.519,31.201c17.299,0,27.274-9.976,28.654-22.393h-29.503v-7.004h37.144
		V329.235z"/>
</g>
</svg>
